examples/limited-ascii_7segment_lut_logic_analyzer_inputs_0.vcd
$version Generated by Wokwi.com $end
$date Tue, 06 Sep 2022 00:19:26 GMT $end
$timescale 1ns $end
$scope module logic $end
$var wire 1 ! D0 $end
$var wire 1 " D1 $end
$var wire 1 # D2 $end
$var wire 1 $ D3 $end
$var wire 1 % D4 $end
$upscope $end
$enddefinitions $end
#0
0!
#0
0"
#0
0#
#0
0$
#0
0%
#62
1%
#62
1$
#62
1#
#62
1"
#125
0#
#125
0$
#125
0%
#50000
1!
#50062
0"
#100000
0!
#150000
1!
#150062
1"
#150125
1#
#150187
1$
#150250
1%
#200000
0!
#250000
1!
#250062
0"
#300000
0!
#350000
1!
#350062
1"
#350125
0#
#400000
0!
#450000
1!
#450062
0"
#500000
0!
#550000
1!
#550062
1"
#550125
1#
#550187
0$
#600000
0!
#650000
1!
#650062
0"
#700000
0!
#750000
1!
#750062
1"
#750125
0#
#800000
0!
#850000
1!
#850062
0"
#900000
0!
#950000
1!
#950062
1"
#950125
1#
#950187
1$
#950250
0%
#1000000
0!
#1050000
1!
#1050062
0"
#1100000
0!
#1150000
1!
#1150062
1"
#1150125
0#
#1200000
0!
#1250000
1!
#1250062
0"
#1300000
0!
#1350000
1!
#1350062
1"
#1350125
1#
#1350187
0$
#1400000
0!
#1450000
1!
#1450062
0"
#1500000
0!
#1550000
1!
#1550062
1"
#1550125
0#
#1600000
0!
#1650000
1!
#1650062
0"
#1700000
0!
#1750000
1!
#1750062
1"
#1750125
1#
#1750187
1$
#1750250
1%
#1800000
0!
#1850000
1!
#1850062
0"
#1900000
0!
#1950000
1!
#1950062
1"
#1950125
0#
#2000000
0!
#2050000
1!
#2050062
0"
#2100000
0!
#2150000
1!
#2150062
1"
#2150125
1#
#2150187
0$
#2200000
0!
#2250000
1!
#2250062
0"
#2300000
0!
#2350000
1!
#2350062
1"
#2350125
0#
#2400000
0!
#2450000
1!
#2450062
0"
#2500000
0!
#2550000
1!
#2550062
1"
#2550125
1#
#2550187
1$
#2550250
0%
#2600000
0!
#2650000
1!
#2650062
0"
#2700000
0!
#2750000
1!
#2750062
1"
#2750125
0#
#2800000
0!
#2850000
1!
#2850062
0"
#2900000
0!
#2950000
1!
#2950062
1"
#2950125
1#
#2950187
0$
#3000000
0!
#3050000
1!
#3050062
0"
#3100000
0!
#3150000
1!
#3150062
1"
#3150125
0#
#3200000
0!
#3250000
1!
#3250062
0"
#3300000
0!
#3350000
1!
#3350062
1"
#3350125
1#
#3350187
1$
#3350250
1%
#3400000
0!
#3450000
1!
#3450062
0"
#3500000
0!
#3550000
1!
#3550062
1"
#3550125
0#
#3600000
0!
#3650000
1!
#3650062
0"
#3700000
0!
#3750000
1!
#3750062
1"
#3750125
1#
#3750187
0$
#3800000
0!
#3850000
1!
#3850062
0"
#3900000
0!
#3950000
1!
#3950062
1"
#3950124
0#
#4000000
0!
#4050000
1!
#4050062
0"
#4100000
0!
#4150000
1!
#4150062
1"
#4150125
1#
#4150187
1$
#4150250
0%
#4200000
0!
#4250000
1!
#4250062
0"
#4300000
0!
#4350000
1!
#4350062
1"
#4350125
0#
#4400000
0!
#4450000
1!
#4450062
0"
#4500000
0!
#4550000
1!
#4550062
1"
#4550125
1#
#4550187
0$
#4600000
0!
#4650000
1!
#4650062
0"
#4700000
0!
#4750000
1!
#4750062
1"
#4750125
0#
#4800000
0!
#4850000
1!
#4850062
0"
#4900000
0!
#4950000
1!
#4950062
1"
#4950125
1#
#4950187
1$
#4950250
1%
#5000000
0!
#5050000
1!
#5050062
0"
#5100000
0!
#5150000
1!
#5150062
1"
#5150125
0#
#5200000
0!
#5250000
1!
#5250062
0"
#5300000
0!
#5350000
1!
#5350062
1"
#5350125
1#
#5350187
0$
#5400000
0!
#5450000
1!
#5450062
0"
#5500000
0!
#5550000
1!
#5550062
1"
#5550125
0#
#5600000
0!
#5650000
1!
#5650062
0"
#5700000
0!
#5750000
1!
#5750062
1"
#5750125
1#
#5750187
1$
#5750250
0%
#5800000
0!
#5850000
1!
#5850062
0"
#5900000
0!
#5950000
1!
#5950062
1"
#5950125
0#
#6000000
0!
#6050000
1!
#6050062
0"
#6100000
0!
#6150000
1!
#6150062
1"
#6150125
1#
#6150187
0$
#6200000
0!
#6250000
1!
#6250062
0"
#6300000
0!
#6350000
1!
#6350062
1"
#6350125
0#
#6400000
0!
#6450000
1!
#6450062
0"
#6500000
0!
#6550000
1!
#6550062
1"
#6550125
1#
#6550187
1$
#6550250
1%
#6600000
0!
#6650000
1!
#6650062
0"
#6700000
0!
#6750000
1!
#6750062
1"
#6750125
0#
#6800000
0!
#6850000
1!
#6850062
0"
#6900000
0!
#6950000
1!
#6950062
1"
#6950125
1#
#6950187
0$
#7000000
0!
#7050000
1!
#7050062
0"
#7100000
0!
#7150000
1!
#7150062
1"
#7150125
0#
#7200000
0!
#7250000
1!
#7250062
0"
#7300000
0!
#7350000
1!
#7350062
1"
#7350125
1#
#7350187
1$
#7350250
0%
#7400000
0!
#7450000
1!
#7450062
0"
#7500000
0!
#7550000
1!
#7550062
1"
#7550125
0#
#7600000
0!
#7650000
1!
#7650062
0"
#7700000
0!
#7750000
1!
#7750062
1"
#7750125
1#
#7750187
0$
#7800000
0!
#7849999
1!
#7850062
0"
#7900000
0!
#7950000
1!
#7950062
1"
#7950125
0#
#8000000
0!
#8050000
1!
#8050062
0"
#8100000
0!
#8149999
1!
#8150062
1"
#8150124
1#
#8150187
1$
#8150249
1%
#8200000
0!
#8250000
1!
#8250062
0"
#8300000
0!
#8350000
1!
#8350062
1"
#8350125
0#
#8400000
0!
#8450000
1!
#8450062
0"
#8500000
0!
#8550000
1!
#8550062
1"
#8550125
1#
#8550187
0$
#8600000
0!
#8650000
1!
#8650062
0"
#8700000
0!
#8750000
1!
#8750062
1"
#8750125
0#
#8800000
0!
#8850000
1!
#8850062
0"
#8900000
0!
#8950000
1!
#8950062
1"
#8950125
1#
#8950187
1$
#8950250
0%
#9000000
0!
#9050000
1!
#9050062
0"
#9100000
0!
#9150000
1!
#9150062
1"
#9150125
0#
#9200000
0!
#9250000
1!
#9250062
0"
#9300000
0!
#9350000
1!
#9350062
1"
#9350125
1#
#9350187
0$
#9400000
0!
#9450000
1!
#9450062
0"
#9500000
0!
#9550000
1!
#9550062
1"
#9550125
0#
#9600000
0!
#9650000
1!
#9650062
0"
#9700000
0!
#9750000
1!
#9750062
1"
#9750125
1#
#9750187
1$
#9750250
1%
#9800000
0!
#9850000
1!
#9850062
0"
#9900000
0!
#9950000
1!
#9950062
1"
#9950125
0#
#10000000
0!
#10050000
1!
#10050062
0"
#10100000
0!
#10150000
1!
#10150062
1"
#10150125
1#
#10150187
0$
#10200000
0!
#10250000
1!
#10250062
0"
#10300000
0!
#10350000
1!
#10350062
1"
#10350125
0#
#10400000
0!
#10450000
1!
#10450062
0"
#10500000
0!
#10550000
1!
#10550062
1"
#10550125
1#
#10550187
1$
#10550250
0%
#10600000
0!
#10650000
1!
#10650062
0"
#10700000
0!
#10750000
1!
#10750062
1"
#10750125
0#
#10800000
0!
#10850000
1!
#10850062
0"
#10900000
0!
#10950000
1!
#10950062
1"
#10950125
1#
#10950187
0$
#11000000
0!
#11050000
1!
#11050062
0"
#11100000
0!
#11150000
1!
#11150062
1"
#11150125
0#
#11200000
0!
#11250000
1!
#11250062
0"
#11300000
0!
#11350000
1!
#11350062
1"
#11350125
1#
#11350187
1$
#11350250
1%
#11400000
0!
#11450000
1!
#11450062
0"
#11500000
0!
#11550000
1!
#11550062
1"
#11550125
0#
#11600000
0!
#11650000
1!
#11650062
0"
#11700000
0!
#11750000
1!
#11750062
1"
#11750125
1#
#11750187
0$
#11800000
0!
#11850000
1!
#11850062
0"
#11900000
0!
#11950000
1!
#11950062
1"
#11950125
0#
#12000000
0!
#12050000
1!
#12050062
0"
#12100000
0!
#12150000
1!
#12150062
1"
#12150125
1#
#12150187
1$
#12150250
0%
#12200000
0!
#12250000
1!
#12250062
0"
#12300000
0!
#12350000
1!
#12350062
1"
#12350125
0#
#12400000
0!
#12450000
1!
#12450062
0"
#12500000
0!
#12550000
1!
#12550062
1"
#12550125
1#
#12550187
0$
#12600000
0!
#12650000
1!
#12650062
0"
#12700000
0!
#12750000
1!
#12750062
1"
#12750125
0#
#12800000
0!
#12850000
1!
#12850062
0"
#12900000
0!
#12950000
1!
#12950062
1"
#12950125
1#
#12950187
1$
#12950250
1%
#13000000
0!
#13050000
1!
#13050062
0"
#13100000
0!
#13150000
1!
#13150062
1"
#13150125
0#
#13200000
0!
#13250000
1!
#13250062
0"
#13300000
0!
#13350000
1!
#13350062
1"
#13350125
1#
#13350187
0$
#13400000
0!
#13450000
1!
#13450062
0"
#13500000
0!
#13550000
1!
#13550062
1"
#13550125
0#
#13600000
0!
#13650000
1!
#13650062
0"
#13700000
0!
#13750000
1!
#13750062
1"
#13750125
1#
#13750187
1$
#13750250
0%
#13800000
0!
#13850000
1!
#13850062
0"
#13900000
0!
#13950000
1!
#13950062
1"
#13950125
0#
#14000000
0!
#14050000
1!
#14050062
0"
#14100000
0!
#14150000
1!
#14150062
1"
#14150125
1#
#14150187
0$
#14200000
0!
#14250000
1!
#14250062
0"
#14300000
0!
#14350000
1!
#14350062
1"
#14350125
0#
#14400000
0!
#14450000
1!
#14450062
0"
#14500000
0!
#14550000
1!
#14550062
1"
#14550125
1#
#14550187
1$
#14550250
1%
#14600000
0!
#14650000
1!
#14650062
0"
#14700000
0!
#14750000
1!
#14750062
1"
#14750125
0#
#14800000
0!
#14850000
1!
#14850062
0"
#14900000
0!
#14950000
1!
#14950062
1"
#14950125
1#
#14950187
0$
#15000000
0!
#15050000
1!
#15050062
0"
#15100000
0!
#15150000
1!
#15150062
1"
#15150125
0#
#15200000
0!
#15250000
1!
#15250062
0"
#15300000
0!
#15350000
1!
#15350062
1"
#15350125
1#
#15350187
1$
#15350250
0%
#15400000
0!
#15450000
1!
#15450062
0"
#15500000
0!
#15550000
1!
#15550062
1"
#15550125
0#
#15600000
0!
#15650000
1!
#15650062
0"
#15699999
0!
#15750000
1!
#15750062
1"
#15750125
1#
#15750187
0$
#15800000
0!
#15850000
1!
#15850062
0"
#15900000
0!
#15949999
1!
#15950062
1"
#15950124
0#
#16000000
0!
#16049999
1!
#16050062
0"
#16100000
0!
#16150000
1!
#16150062
1"
#16150125
1#
#16150187
1$
#16150250
1%
#16200000
0!
#16250000
1!
#16250062
0"
#16299999
0!
#16350000
1!
#16350062
1"
#16350125
0#
#16400000
0!
#16450000
1!
#16450062
0"
#16500000
0!
#16549999
1!
#16550062
1"
#16550124
1#
#16550187
0$
#16600000
0!
#16650000
1!
#16650062
0"
#16700000
0!
#16750000
1!
#16750062
1"
#16750125
0#
#16800000
0!
#16850000
1!
#16850062
0"
#16900000
0!
#16950000
1!
#16950062
1"
#16950125
1#
#16950187
1$
#16950250
0%
#17000000
0!
#17050000
1!
#17050062
0"
#17100000
0!
#17150000
1!
#17150062
1"
#17150125
0#
#17200000
0!
#17250000
1!
#17250062
0"
#17300000
0!
#17350000
1!
#17350062
1"
#17350125
1#
#17350187
0$
#17400000
0!
#17450000
1!
#17450062
0"
#17500000
0!
#17550000
1!
#17550062
1"
#17550125
0#
#17600000
0!
#17650000
1!
#17650062
0"
#17700000
0!
#17750000
1!
#17750062
1"
#17750125
1#
#17750187
1$
#17750250
1%
#17800000
0!
#17850000
1!
#17850062
0"
#17900000
0!
#17950000
1!
#17950062
1"
#17950125
0#
#18000000
0!
#18050000
1!
#18050062
0"
#18100000
0!
#18150000
1!
#18150062
1"
#18150125
1#
#18150187
0$
#18200000
0!
#18250000
1!
#18250062
0"
#18300000
0!
#18350000
1!
#18350062
1"
#18350125
0#
#18400000
0!
#18450000
1!
#18450062
0"
#18500000
0!
#18550000
1!
#18550062
1"
#18550125
1#
#18550187
1$
#18550250
0%
#18600000
0!
#18650000
1!
#18650062
0"
#18700000
0!
#18750000
1!
#18750062
1"
#18750125
0#
#18800000
0!
#18850000
1!
#18850062
0"
#18900000
0!
#18950000
1!
#18950062
1"
#18950125
1#
#18950187
0$
#19000000
0!
#19050000
1!
#19050062
0"
#19100000
0!
#19150000
1!
#19150062
1"
#19150125
0#
#19200000
0!
#19250000
1!
#19250062
0"
#19300000
0!
#19350000
1!
#19350062
1"
#19350125
1#
#19350187
1$
#19350250
1%
#19400000
0!
#19450000
1!
#19450062
0"
#19500000
0!
#19550000
1!
#19550062
1"
#19550125
0#
#19600000
0!
#19650000
1!
#19650062
0"
#19700000
0!
#19750000
1!
#19750062
1"
#19750125
1#
#19750187
0$
#19800000
0!
#19850000
1!
#19850062
0"
#19900000
0!
#19950000
1!
#19950062
1"
#19950125
0#
#20000000
0!
#20050000
1!
#20050062
0"
#20100000
0!
#20150000
1!
#20150062
1"
#20150125
1#
#20150187
1$
#20150250
0%
#20200000
0!
#20250000
1!
#20250062
0"
#20300000
0!
#20350000
1!
#20350062
1"
#20350125
0#
#20400000
0!
#20450000
1!
#20450062
0"
#20500000
0!
#20550000
1!
#20550062
1"
#20550125
1#
#20550187
0$
#20600000
0!
#20650000
1!
#20650062
0"
#20700000
0!
#20750000
1!
#20750062
1"
#20750125
0#
#20800000
0!
#20850000
1!
#20850062
0"
#20900000
0!
#20950000
1!
#20950062
1"
#20950125
1#
#20950187
1$
#20950250
1%
#21000000
0!
#21050000
1!
#21050062
0"
#21100000
0!
#21150000
1!
#21150062
1"
#21150125
0#
#21200000
0!
#21250000
1!
#21250062
0"
#21300000
0!
#21350000
1!
#21350062
1"
#21350125
1#
#21350187
0$
#21400000
0!
#21450000
1!
#21450062
0"
#21500000
0!
#21550000
1!
#21550062
1"
#21550125
0#
#21600000
0!
#21650000
1!
#21650062
0"
#21700000
0!
#21750000
1!
#21750062
1"
#21750125
1#
#21750187
1$
#21750250
0%
#21800000
0!
#21850000
1!
#21850062
0"
#21900000
0!
#21950000
1!
#21950062
1"
#21950125
0#
#22000000
0!
#22050000
1!
#22050062
0"
#22100000
0!
#22150000
1!
#22150062
1"
#22150125
1#
#22150187
0$
#22200000
0!
#22250000
1!
#22250062
0"
#22300000
0!
#22350000
1!
#22350062
1"
#22350125
0#
#22400000
0!
#22450000
1!
#22450062
0"
#22500000
0!
#22550000
1!
#22550062
1"
#22550125
1#
#22550187
1$
#22550250
1%
#22600000
0!
#22650000
1!
#22650062
0"
#22700000
0!
#22750000
1!
#22750062
1"
#22750125
0#
#22800000
0!
#22850000
1!
#22850062
0"
#22900000
0!
#22950000
1!
#22950062
1"
#22950125
1#
#22950187
0$
#23000000
0!
#23050000
1!
#23050062
0"
#23100000
0!
#23150000
1!
#23150062
1"
#23150125
0#
#23200000
0!
#23250000
1!
#23250062
0"
#23300000
0!
#23350000
1!
#23350062
1"
#23350125
1#
#23350187
1$
#23350250
0%
#23400000
0!
#23450000
1!
#23450062
0"
#23500000
0!
#23550000
1!
#23550062
1"
#23550125
0#
#23600000
0!
#23650000
1!
#23650062
0"
#23700000
0!
#23750000
1!
#23750062
1"
#23750125
1#
#23750187
0$
#23800000
0!
#23850000
1!
#23850062
0"
#23900000
0!
#23950000
1!
#23950062
1"
#23950125
0#
#24000000
0!
#24050000
1!
#24050062
0"
#24100000
0!
#24150000
1!
#24150062
1"
#24150125
1#
#24150187
1$
#24150250
1%
#24200000
0!
#24250000
1!
#24250062
0"
#24300000
0!
#24350000
1!
#24350062
1"
#24350125
0#
#24400000
0!
#24450000
1!
#24450062
0"
#24500000
0!
#24550000
1!
#24550062
1"
#24550125
1#
#24550187
0$
#24600000
0!
#24650000
1!
#24650062
0"
#24700000
0!
#24750000
1!
#24750062
1"
#24750125
0#
#24800000
0!
#24850000
1!
#24850062
0"
#24900000
0!
#24950000
1!
#24950062
1"
#24950125
1#
#24950187
1$
#24950250
0%
#25000000
0!
#25050000
1!
#25050062
0"
#25100000
0!
#25150000
1!
#25150062
1"
#25150125
0#
#25200000
0!
#25250000
1!
#25250062
0"
#25300000
0!
#25350000
1!
#25350062
1"
#25350125
1#
#25350187
0$
#25400000
0!
#25450000
1!
#25450062
0"
#25500000
0!
#25550000
1!
#25550062
1"
#25550125
0#
#25600000
0!
#25650000
1!
#25650062
0"
#25700000
0!
#25750000
1!
#25750062
1"
#25750125
1#
#25750187
1$
#25750250
1%
#25800000
0!
#25850000
1!
#25850062
0"
#25900000
0!
#25950000
1!
#25950062
1"
#25950125
0#
#26000000
0!
#26050000
1!
#26050062
0"
#26100000
0!
#26150000
1!
#26150062
1"
#26150125
1#
#26150187
0$
#26200000
0!
#26250000
1!
#26250062
0"
#26300000
0!
#26350000
1!
#26350062
1"
#26350125
0#
#26400000
0!
#26450000
1!
#26450062
0"
#26500000
0!
#26550000
1!
#26550062
1"
#26550125
1#
#26550187
1$
#26550250
0%
#26600000
0!
#26650000
1!
#26650062
0"
#26700000
0!
#26750000
1!
#26750062
1"
#26750125
0#
#26800000
0!
#26850000
1!
#26850062
0"
#26900000
0!
#26950000
1!
#26950062
1"
#26950125
1#
#26950187
0$
#27000000
0!
#27050000
1!
#27050062
0"
#27100000
0!
#27150000
1!
#27150062
1"
#27150125
0#
#27200000
0!
#27250000
1!
#27250062
0"
#27300000
0!
#27350000
1!
#27350062
1"
#27350125
1#
#27350187
1$
#27350250
1%
#27400000
0!
#27450000
1!
#27450062
0"
#27500000
0!
#27550000
1!
#27550062
1"
#27550125
0#
#27600000
0!
#27650000
1!
#27650062
0"
#27700000
0!
#27750000
1!
#27750062
1"
#27750125
1#
#27750187
0$
#27800000
0!
#27850000
1!
#27850062
0"
#27900000
0!
#27950000
1!
#27950062
1"
#27950125
0#
#28000000
0!
#28050000
1!
#28050062
0"
#28100000
0!
#28150000
1!
#28150062
1"
#28150125
1#
#28150187
1$
#28150250
0%
#28200000
0!
#28250000
1!
#28250062
0"
#28300000
0!
#28350000
1!
#28350062
1"
#28350125
0#
#28400000
0!
#28450000
1!
#28450062
0"
#28500000
0!
#28550000
1!
#28550062
1"
#28550125
1#
#28550187
0$
#28600000
0!
#28650000
1!
#28650062
0"
#28700000
0!
#28750000
1!
#28750062
1"
#28750125
0#
#28800000
0!
#28850000
1!
#28850062
0"
#28900000
0!
#28950000
1!
#28950062
1"
#28950125
1#
#28950187
1$
#28950250
1%
#29000000
0!
#29050000
1!
#29050062
0"
#29100000
0!
#29150000
1!
#29150062
1"
#29150125
0#
#29200000
0!
#29250000
1!
#29250062
0"
#29300000
0!
#29350000
1!
#29350062
1"
#29350125
1#
#29350187
0$
#29400000
0!
#29450000
1!
#29450062
0"
#29500000
0!
#29550000
1!
#29550062
1"
#29550125
0#
#29600000
0!
#29650000
1!
#29650062
0"
#29700000
0!
#29750000
1!
#29750062
1"
#29750125
1#
#29750187
1$
#29750250
0%
#29800000
0!
#29850000
1!
#29850062
0"
#29900000
0!
#29950000
1!
#29950062
1"
#29950125
0#
#30000000
0!
#30050000
1!
#30050062
0"
#30100000
0!
#30150000
1!
#30150062
1"
#30150125
1#
#30150187
0$
#30200000
0!
#30250000
1!
#30250062
0"
#30300000
0!
#30350000
1!
#30350062
1"
#30350125
0#
#30400000
0!
#30450000
1!
#30450062
0"
#30500000
0!
#30550000
1!
#30550062
1"
#30550125
1#
#30550187
1$
#30550250
1%
#30600000
0!
#30650000
1!
#30650062
0"
#30700000
0!
#30750000
1!
#30750062
1"
#30750125
0#
#30800000
0!
#30850000
1!
#30850062
0"
#30900000
0!
#30950000
1!
#30950062
1"
#30950125
1#
#30950187
0$
#31000000
0!
#31050000
1!
#31050062
0"
#31100000
0!
#31150000
1!
#31150062
1"
#31150125
0#
#31200000
0!
#31250000
1!
#31250062
0"
#31300000
0!
#31350000
1!
#31350062
1"
#31350125
1#
#31350187
1$
#31350250
0%
#31399999
0!
#31450000
1!
#31450062
0"
#31500000
0!
#31550000
1!
#31550062
1"
#31550125
0#
#31600000
0!
#31649999
1!
#31650062
0"
#31700000
0!
#31750000
1!
#31750062
1"
#31750124
1#
#31750187
0$
#31800000
0!
#31850000
1!
#31850062
0"
#31899999
0!
#31950000
1!
#31950062
1"
#31950125
0#
#32000000
0!
#32050000
1!
#32050062
0"
#32099999
0!
#32149999
1!
#32150062
1"
#32150125
1#
#32150187
1$
#32150250
1%
#32200000
0!
#32250000
1!
#32250062
0"
#32300000
0!
#32349999
1!
#32350062
1"
#32350125
0#
#32400000
0!
#32450000
1!
#32450062
0"
#32500000
0!
#32550000
1!
#32550062
1"
#32550125
1#
#32550187
0$
#32599999
0!
#32650000
1!
#32650062
0"
#32700000
0!
#32750000
1!
#32750062
1"
#32750124
0#
#32800000
0!
#32849999
1!
#32850062
0"
#32900000
0!
#32950000
1!
#32950062
1"
#32950124
1#
#32950187
1$
#32950250
0%
#33000000
0!
#33050000
1!
#33050062
0"
#33099999
0!
#33150000
1!
#33150062
1"
#33150125
0#
#33200000
0!
#33250000
1!
#33250062
0"
#33300000
0!
#33349999
1!
#33350062
1"
#33350125
1#
#33350187
0$
#33400000
0!
#33450000
1!
#33450062
0"
#33500000
0!
#33550000
1!
#33550062
1"
#33550125
0#
#33600000
0!
#33650000
1!
#33650062
0"
#33700000
0!
#33750000
1!
#33750062
1"
#33750125
1#
#33750187
1$
#33750250
1%
#33800000
0!
#33850000
1!
#33850062
0"
#33900000
0!
#33950000
1!
#33950062
1"
#33950125
0#
#34000000
0!
#34050000
1!
#34050062
0"
#34100000
0!
#34150000
1!
#34150062
1"
#34150125
1#
#34150187
0$
#34200000
0!
#34250000
1!
#34250062
0"
#34300000
0!
#34350000
1!
#34350062
1"
#34350125
0#
#34400000
0!
#34450000
1!
#34450062
0"
#34500000
0!
#34550000
1!
#34550062
1"
#34550125
1#
#34550187
1$
#34550250
0%
#34600000
0!
#34650000
1!
#34650062
0"
#34700000
0!
#34750000
1!
#34750062
1"
#34750125
0#
#34800000
0!
#34850000
1!
#34850062
0"
#34900000
0!
#34950000
1!
#34950062
1"
#34950125
1#
#34950187
0$
#35000000
0!
#35050000
1!
#35050062
0"
#35100000
0!
#35150000
1!
#35150062
1"
#35150125
0#
#35200000
0!
#35250000
1!
#35250062
0"
#35300000
0!
#35350000
1!
#35350062
1"
#35350125
1#
#35350187
1$
#35350250
1%
#35400000
0!
#35450000
1!
#35450062
0"
#35500000
0!
#35550000
1!
#35550062
1"
#35550125
0#
#35600000
0!
#35650000
1!
#35650062
0"
#35700000
0!
#35750000
1!
#35750062
1"
#35750125
1#
#35750187
0$
#35800000
0!
#35850000
1!
#35850062
0"
#35900000
0!
#35950000
1!
#35950062
1"
#35950125
0#
#36000000
0!
#36050000
1!
#36050062
0"
#36100000
0!
#36150000
1!
#36150062
1"
#36150125
1#
#36150187
1$
#36150250
0%
#36200000
0!
#36250000
1!
#36250062
0"
#36300000
0!
#36350000
1!
#36350062
1"
#36350125
0#
#36400000
0!
#36450000
1!
#36450062
0"
#36500000
0!
#36550000
1!
#36550062
1"
#36550125
1#
#36550187
0$
#36600000
0!
#36650000
1!
#36650062
0"
#36700000
0!
#36750000
1!
#36750062
1"
#36750125
0#
#36800000
0!
#36850000
1!
#36850062
0"
#36900000
0!
#36950000
1!
#36950062
1"
#36950125
1#
#36950187
1$
#36950250
1%
#37000000
0!
#37050000
1!
#37050062
0"
#37100000
0!
#37150000
1!
#37150062
1"
#37150125
0#
#37200000
0!
#37250000
1!
#37250062
0"
#37300000
0!
#37350000
1!
#37350062
1"
#37350125
1#
#37350187
0$
#37400000
0!
#37450000
1!
#37450062
0"
#37500000
0!
#37550000
1!
#37550062
1"
#37550125
0#
#37600000
0!
#37650000
1!
#37650062
0"
#37700000
0!
#37750000
1!
#37750062
1"
#37750125
1#
#37750187
1$
#37750250
0%
#37800000
0!
#37850000
1!
#37850062
0"
#37900000
0!
#37950000
1!
#37950062
1"
#37950125
0#
#38000000
0!
#38050000
1!
#38050062
0"
#38100000
0!
#38150000
1!
#38150062
1"
#38150125
1#
#38150187
0$
#38200000
0!
#38250000
1!
#38250062
0"
#38300000
0!
#38350000
1!
#38350062
1"
#38350125
0#
#38400000
0!
#38450000
1!
#38450062
0"
#38500000
0!
#38550000
1!
#38550062
1"
#38550125
1#
#38550187
1$
#38550250
1%
#38600000
0!
#38650000
1!
#38650062
0"
#38700000
0!
#38750000
1!
#38750062
1"
#38750125
0#
#38800000
0!
#38850000
1!
#38850062
0"
#38900000
0!
#38950000
1!
#38950062
1"
#38950125
1#
#38950187
0$
#39000000
0!
#39050000
1!
#39050062
0"
#39100000
0!
#39150000
1!
#39150062
1"
#39150125
0#
#39200000
0!
#39250000
1!
#39250062
0"
#39300000
0!
#39350000
1!
#39350062
1"
#39350125
1#
#39350187
1$
#39350250
0%
#39400000
0!
#39450000
1!
#39450062
0"
#39500000
0!
#39550000
1!
#39550062
1"
#39550125
0#
#39600000
0!
#39650000
1!
#39650062
0"
#39700000
0!
#39750000
1!
#39750062
1"
#39750125
1#
#39750187
0$
#39800000
0!
#39850000
1!
#39850062
0"
#39900000
0!
#39950000
1!
#39950062
1"
#39950125
0#
#40000000
0!
#40050000
1!
#40050062
0"
#40100000
0!
#40150000
1!
#40150062
1"
#40150125
1#
#40150187
1$
#40150250
1%
#40200000
0!
#40250000
1!
#40250062
0"
#40300000
0!
#40350000
1!
#40350062
1"
#40350125
0#
#40400000
0!
#40450000
1!
#40450062
0"
#40500000
0!
#40550000
1!
#40550062
1"
#40550125
1#
#40550187
0$
#40600000
0!
#40650000
1!
#40650062
0"
#40700000
0!
#40750000
1!
#40750062
1"
#40750125
0#
#40800000
0!
#40850000
1!
#40850062
0"
#40900000
0!
#40950000
1!
#40950062
1"
#40950125
1#
#40950187
1$
#40950250
0%
#41000000
0!
#41050000
1!
#41050062
0"
#41100000
0!
#41150000
1!
#41150062
1"
#41150125
0#
#41200000
0!
#41250000
1!
#41250062
0"
#41300000
0!
#41350000
1!
#41350062
1"
#41350125
1#
#41350187
0$
#41400000
0!
#41450000
1!
#41450062
0"
#41500000
0!
#41550000
1!
#41550062
1"
#41550125
0#
#41600000
0!
#41650000
1!
#41650062
0"
#41700000
0!
#41750000
1!
#41750062
1"
#41750125
1#
#41750187
1$
#41750250
1%
#41800000
0!
#41850000
1!
#41850062
0"
#41900000
0!
#41950000
1!
#41950062
1"
#41950125
0#
#42000000
0!
#42050000
1!
#42050062
0"
#42100000
0!
#42150000
1!
#42150062
1"
#42150125
1#
#42150187
0$
#42200000
0!
#42250000
1!
#42250062
0"
#42300000
0!
#42350000
1!
#42350062
1"
#42350125
0#
#42400000
0!
#42450000
1!
#42450062
0"
#42500000
0!
#42550000
1!
#42550062
1"
#42550125
1#
#42550187
1$
#42550250
0%
#42600000
0!
#42650000
1!
#42650062
0"
#42700000
0!
#42750000
1!
#42750062
1"
#42750125
0#
#42800000
0!
#42850000
1!
#42850062
0"
#42900000
0!
#42950000
1!
#42950062
1"
#42950125
1#
#42950187
0$
#43000000
0!
#43050000
1!
#43050062
0"
#43100000
0!
#43150000
1!
#43150062
1"
#43150125
0#
#43200000
0!
#43250000
1!
#43250062
0"
#43300000
0!
#43350000
1!
#43350062
1"
#43350125
1#
#43350187
1$
#43350250
1%
#43400000
0!
#43450000
1!
#43450062
0"
#43500000
0!
#43550000
1!
#43550062
1"
#43550125
0#
#43600000
0!
#43650000
1!
#43650062
0"
#43700000
0!
#43750000
1!
#43750062
1"
#43750125
1#
#43750187
0$
#43800000
0!
#43850000
1!
#43850062
0"
#43900000
0!
#43950000
1!
#43950062
1"
#43950125
0#
#44000000
0!
#44050000
1!
#44050062
0"
#44100000
0!
#44150000
1!
#44150062
1"
#44150125
1#
#44150187
1$
#44150250
0%
#44200000
0!
#44250000
1!
#44250062
0"
#44300000
0!
#44350000
1!
#44350062
1"
#44350125
0#
#44400000
0!
#44450000
1!
#44450062
0"
#44500000
0!
#44550000
1!
#44550062
1"
#44550125
1#
#44550187
0$
#44600000
0!
#44650000
1!
#44650062
0"
#44700000
0!
#44750000
1!
#44750062
1"
#44750125
0#
#44800000
0!
#44850000
1!
#44850062
0"
#44900000
0!
#44950000
1!
#44950062
1"
#44950125
1#
#44950187
1$
#44950250
1%
#45000000
0!
#45050000
1!
#45050062
0"
#45100000
0!
#45150000
1!
#45150062
1"
#45150125
0#
#45200000
0!
#45250000
1!
#45250062
0"
#45300000
0!
#45350000
1!
#45350062
1"
#45350125
1#
#45350187
0$
#45400000
0!
#45450000
1!
#45450062
0"
#45500000
0!
#45550000
1!
#45550062
1"
#45550125
0#
#45600000
0!
#45650000
1!
#45650062
0"
#45700000
0!
#45750000
1!
#45750062
1"
#45750125
1#
#45750187
1$
#45750250
0%
#45800000
0!
#45850000
1!
#45850062
0"
#45900000
0!
#45950000
1!
#45950062
1"
#45950125
0#
#46000000
0!
#46050000
1!
#46050062
0"
#46100000
0!
#46150000
1!
#46150062
1"
#46150125
1#
#46150187
0$
#46200000
0!
#46250000
1!
#46250062
0"
#46300000
0!
#46350000
1!
#46350062
1"
#46350125
0#
#46400000
0!
#46450000
1!
#46450062
0"
#46500000
0!
#46550000
1!
#46550062
1"
#46550125
1#
#46550187
1$
#46550250
1%
#46600000
0!
#46650000
1!
#46650062
0"
#46700000
0!
#46750000
1!
#46750062
1"
#46750125
0#
#46800000
0!
#46850000
1!
#46850062
0"
#46900000
0!
#46950000
1!
#46950062
1"
#46950125
1#
#46950187
0$
#47000000
0!
#47050000
1!
#47050062
0"
#47100000
0!
#47150000
1!
#47150062
1"
#47150125
0#
#47200000
0!
#47250000
1!
#47250062
0"
#47300000
0!
#47350000
1!
#47350062
1"
#47350125
1#
#47350187
1$
#47350250
0%
#47400000
0!
#47450000
1!
#47450062
0"
#47500000
0!
#47550000
1!
#47550062
1"
#47550125
0#
#47600000
0!
#47650000
1!
#47650062
0"
